{
  "hfw": [
    "I",
    "she",
    "weekend",
    "Sunday",
    "too",
    "the",
    "said",
    "time",
    "did",
    "next",
    "and",
    "played",
    "her",
    "school",
    "dog",
    "to",
    "one",
    "go",
    "two",
    "lots",
    "a",
    "is",
    "came",
    "very",
    "night",
    "was",
    "were",
    "because",
    "back",
    "not",
    "my",
    "day",
    "up",
    "ate",
    "friends",
    "went",
    "so",
    "his",
    "get",
    "into",
    "we",
    "when",
    "once",
    "lived",
    "an",
    "on",
    "home",
    "after",
    "am",
    "park",
    "it",
    "you",
    "fun",
    "him",
    "will",
    "then",
    "at",
    "like",
    "watched",
    "car",
    "he",
    "me",
    "some",
    "little",
    "do",
    "had",
    "mum",
    "have ",
    "can",
    "sister",
    "in",
    "for",
    "are",
    "bought",
    "be",
    "they",
    "dad",
    "out",
    "well",
    "people",
    "with",
    "but",
    "going",
    "them",
    "didn't",
    "of",
    "saw",
    "called",
    "bed",
    "friend",
    "there",
    "house",
    "all",
    "made",
    "or",
    "got",
    "that",
    "play",
    "name",
    "Who"
  ],
  "noun": [
    "animal",
    "guitar",
    "ocean",
    "stone",
    "airport",
    "hair",
    "orange",
    "teacher",
    "apple",
    "hamburger",
    "ghost",
    "telephone",
    "Australia",
    "holiday",
    "painting",
    "television",
    "Balloon",
    "horse",
    "parrot",
    "tomato",
    "Banana ",
    "house",
    "pencil",
    "train",
    "insect",
    "piano",
    "truck",
    "camera ",
    "jelly",
    "pillow",
    "umbrella",
    "China",
    "juice",
    "pizza",
    "Uganda",
    "diamond",
    "king",
    "planet",
    "dinner",
    "library",
    "potato",
    "vase",
    "lion",
    "queen",
    "vegetable",
    "doctor",
    "lizard",
    "rain",
    "wall",
    "dream",
    "lunch",
    "rainbow",
    "window",
    "market",
    "restaurant",
    "yacht",
    "Egypt",
    "magician",
    "rocket",
    "elephant",
    "monkey",
    "rose",
    "zebra",
    "morning",
    "sandwich ",
    "family",
    "nail",
    "shoe",
    "France",
    "night",
    "soccer"
  ],
  "verb": [
    "bend",
    "crouch",
    "give",
    "lift",
    "walk",
    "jump",
    "paint",
    "carry",
    "dive",
    "kneel",
    "ride",
    "drink",
    "hold",
    "sit down",
    "cook",
    "stack",
    "stand up",
    "wash",
    "punch",
    "fight",
    "wait",
    "shake",
    "pick up",
    "laugh",
    "climb",
    "share",
    "leap",
    "watch tv",
    "talk",
    "cycle",
    "jump",
    "dance",
    "crawl",
    "clean",
    "drag",
    "turn on",
    "dream",
    "shout",
    "dive",
    "turn off",
    "surf",
    "pull",
    "clap",
    "taste",
    "push",
    "write",
    "knit",
    "open",
    "weigh",
    "lean",
    "close",
    "smell",
    "walk",
    "sleep",
    "kiss",
    "throw",
    "throw away",
    "tiptoe",
    "snore",
    "bathe"
  ],
  "adjective": [
    "aggressive",
    "sharp",
    "fancy",
    "wrong",
    "anxious",
    "fresh",
    "alive",
    "solid",
    "graceful",
    "attractive",
    "scared",
    "steep",
    "happy",
    "beige",
    "short",
    "brown",
    "sweet",
    "black",
    "small",
    "cheap",
    "teak",
    "lazy",
    "busy",
    "sour",
    "crooked",
    "tired",
    "massive",
    "clear",
    "strong",
    "delicious",
    "unusual",
    "modern",
    "cotton",
    "terrible",
    "dull",
    "whispering",
    "poor",
    "dangerous",
    "triangular",
    "expensive",
    "woollen",
    "rainy",
    "drab",
    "weary",
    "filthy",
    "alert",
    "round",
    "elderly",
    "wild",
    "good",
    "arrow",
    "shiny",
    "yellow",
    "handsome",
    "beautiful",
    "skinny",
    "fuzzy",
    "better",
    "large",
    "bitter",
    "sore ",
    "hard",
    "blue",
    "bumpy",
    "sticky",
    "huge",
    "careful",
    "oval",
    "chestnut",
    "swift",
    "light",
    "cold",
    "plastic",
    "cool",
    "teeny",
    "mellow",
    "crazy",
    "quiet",
    "crystal",
    "tremendous",
    "dead",
    "right",
    "weak",
    "salty",
    "dusty",
    "white",
    "pick",
    "hungry"
  ],
  "adverb": [
    "bravely",
    "always",
    "hungrily",
    "cheerfully",
    "eventually",
    "loosely",
    "eagerly",
    "finally",
    "madly",
    "fortunately",
    "never",
    "mysteriously",
    "gleefully",
    "occasionally",
    "nervously",
    "happily",
    "often",
    "only",
    "honestly",
    "sometimes",
    "seriously",
    "kindly",
    "usually",
    "shakily",
    "obediently",
    "weekly",
    "sharply",
    "perfectly",
    "quickly",
    "silently",
    "politely",
    "rapidly",
    "wildly",
    "safely",
    "slowly",
    "warmly",
    "tediously",
    "angrily",
    "accidentally",
    "badly",
    "awkwardly",
    "hopelessly",
    "blindly",
    "irritably",
    "crazily",
    "jealously",
    "dramatically",
    "poorly",
    "enormously",
    "rudely",
    "exactly"
  ]
}